[
    {
        "id": "1",
        "name": "Pikachu"
    },
    {
        "id": "2",
        "name": "Bulbasaur"
    },
    {
        "id": "3",
        "name": "Charmander"
    },
    {
        "id": "4",
        "name": "Squirtle"
    },
    {
        "id": "5",
        "name": "PikaGyarados"
    },
    {
        "id": "6",
        "name": "Dragonite"
    },
    {
        "id": "7",
        "name": "Mewtwo"
    }
]